%YAML 1.1
%TAG !u! tag:unity3d.com,2011:
--- !u!78 &1
TagManager:
  serializedVersion: 2
  tags:
  - Tall
  - WestRamp
  - Dirt
  - Grass
  - Rock
  - Water
  - EastRamp
  - Block
  - Undefined
  - Obstacle
  - Floor
  - Creature
  layers:
  - Default
  - TransparentFX
  - Ignore Raycast
  - 
  - Water
  - UI
  - 
  - 
  - 
  - 
  - 
  - 
  - 
  - 
  - 
  - 
  - 
  - 
  - 
  - 
  - 
  - 
  - 
  - 
  - 
  - 
  - 
  - 
  - 
  - 
  - 
  - 
  m_SortingLayers:
  - name: Default
    uniqueID: 0
    locked: 0
  - name: Hostages
    uniqueID: 90238873
    locked: 0
  - name: Ladybugs
    uniqueID: 799887041
    locked: 0
  - name: Tiles
    uniqueID: 1564408445
    locked: 0
