%YAML 1.1
%TAG !u! tag:unity3d.com,2011:
--- !u!114 &11400000
MonoBehaviour:
  m_ObjectHideFlags: 0
  m_CorrespondingSourceObject: {fileID: 0}
  m_PrefabInstance: {fileID: 0}
  m_PrefabAsset: {fileID: 0}
  m_GameObject: {fileID: 0}
  m_Enabled: 1
  m_EditorHideFlags: 0
  m_Script: {fileID: 11500000, guid: 5af01e1ee4f5a5c4b84b48e4f26c154a, type: 3}
  m_Name: 1-2
  m_EditorClassIdentifier: 
  unlocked: 1
  minLvl: 1
  maxLvl: 2
  enemies:
  - {fileID: 11400000, guid: 147f914d4f36f474cb6798a60891fa54, type: 2}
  - {fileID: 11400000, guid: ff82cd3928964914fb70a8aee5ecba3f, type: 2}
  nextMap: {fileID: 11400000, guid: d50b797602882a4478242a071e18ec10, type: 2}
