%YAML 1.1
%TAG !u! tag:unity3d.com,2011:
--- !u!74 &7400000
AnimationClip:
  m_ObjectHideFlags: 0
  m_CorrespondingSourceObject: {fileID: 0}
  m_PrefabInstance: {fileID: 0}
  m_PrefabAsset: {fileID: 0}
  m_Name: Bulbasur-Dead
  serializedVersion: 6
  m_Legacy: 0
  m_Compressed: 0
  m_UseHighQualityCurve: 1
  m_RotationCurves: []
  m_CompressedRotationCurves: []
  m_EulerCurves: []
  m_PositionCurves: []
  m_ScaleCurves: []
  m_FloatCurves:
  - curve:
      serializedVersion: 2
      m_Curve:
      - serializedVersion: 3
        time: 0
        value: 1
        inSlope: Infinity
        outSlope: Infinity
        tangentMode: 103
        weightedMode: 0
        inWeight: 0
        outWeight: 0
      - serializedVersion: 3
        time: 0.25
        value: 0
        inSlope: Infinity
        outSlope: Infinity
        tangentMode: 103
        weightedMode: 0
        inWeight: 0
        outWeight: 0
      m_PreInfinity: 2
      m_PostInfinity: 2
      m_RotationOrder: 4
    attribute: m_Enabled
    path: 
    classID: 212
    script: {fileID: 0}
  m_PPtrCurves:
  - curve:
    - time: 0
      value: {fileID: 21300000, guid: eea6ebb8712661c4e8701785db795668, type: 3}
    - time: 0.083333336
      value: {fileID: 21300000, guid: eea6ebb8712661c4e8701785db795668, type: 3}
    - time: 0.16666667
      value: {fileID: 21300000, guid: bfe7261f8066a6d4fb376364e23da312, type: 3}
    - time: 0.25
      value: {fileID: 21300000, guid: 8234126be2e7dde4e957857d5e05012b, type: 3}
    - time: 0.33333334
      value: {fileID: 21300000, guid: e8aedf4762996c9469ca4044648e6468, type: 3}
    - time: 0.41666666
      value: {fileID: 21300000, guid: 8c9db5f9c3b71bf45a64db2ba6296d1a, type: 3}
    - time: 0.5
      value: {fileID: 21300000, guid: c4d0dd730439df94e83ec57dc0860310, type: 3}
    - time: 0.5833333
      value: {fileID: 21300000, guid: 41c3875b88b4c2b449a091ddddbd9739, type: 3}
    - time: 0.6666667
      value: {fileID: 0}
    attribute: m_Sprite
    path: New Sprite
    classID: 212
    script: {fileID: 0}
  - curve:
    - time: 0
      value: {fileID: 9205523081792687436, guid: 1e04ebb58326ca44a9c631afb1f6b856,
        type: 3}
    attribute: m_Sprite
    path: 
    classID: 212
    script: {fileID: 0}
  m_SampleRate: 60
  m_WrapMode: 0
  m_Bounds:
    m_Center: {x: 0, y: 0, z: 0}
    m_Extent: {x: 0, y: 0, z: 0}
  m_ClipBindingConstant:
    genericBindings:
    - serializedVersion: 2
      path: 0
      attribute: 3305885265
      script: {fileID: 0}
      typeID: 212
      customType: 0
      isPPtrCurve: 0
    - serializedVersion: 2
      path: 2673217936
      attribute: 0
      script: {fileID: 0}
      typeID: 212
      customType: 23
      isPPtrCurve: 1
    - serializedVersion: 2
      path: 0
      attribute: 0
      script: {fileID: 0}
      typeID: 212
      customType: 23
      isPPtrCurve: 1
    pptrCurveMapping:
    - {fileID: 21300000, guid: eea6ebb8712661c4e8701785db795668, type: 3}
    - {fileID: 21300000, guid: eea6ebb8712661c4e8701785db795668, type: 3}
    - {fileID: 21300000, guid: bfe7261f8066a6d4fb376364e23da312, type: 3}
    - {fileID: 21300000, guid: 8234126be2e7dde4e957857d5e05012b, type: 3}
    - {fileID: 21300000, guid: e8aedf4762996c9469ca4044648e6468, type: 3}
    - {fileID: 21300000, guid: 8c9db5f9c3b71bf45a64db2ba6296d1a, type: 3}
    - {fileID: 21300000, guid: c4d0dd730439df94e83ec57dc0860310, type: 3}
    - {fileID: 21300000, guid: 41c3875b88b4c2b449a091ddddbd9739, type: 3}
    - {fileID: 0}
    - {fileID: 9205523081792687436, guid: 1e04ebb58326ca44a9c631afb1f6b856, type: 3}
  m_AnimationClipSettings:
    serializedVersion: 2
    m_AdditiveReferencePoseClip: {fileID: 0}
    m_AdditiveReferencePoseTime: 0
    m_StartTime: 0
    m_StopTime: 0.68333334
    m_OrientationOffsetY: 0
    m_Level: 0
    m_CycleOffset: 0
    m_HasAdditiveReferencePose: 0
    m_LoopTime: 0
    m_LoopBlend: 0
    m_LoopBlendOrientation: 0
    m_LoopBlendPositionY: 0
    m_LoopBlendPositionXZ: 0
    m_KeepOriginalOrientation: 0
    m_KeepOriginalPositionY: 1
    m_KeepOriginalPositionXZ: 0
    m_HeightFromFeet: 0
    m_Mirror: 0
  m_EditorCurves:
  - curve:
      serializedVersion: 2
      m_Curve:
      - serializedVersion: 3
        time: 0
        value: 1
        inSlope: Infinity
        outSlope: Infinity
        tangentMode: 103
        weightedMode: 0
        inWeight: 0
        outWeight: 0
      - serializedVersion: 3
        time: 0.25
        value: 0
        inSlope: Infinity
        outSlope: Infinity
        tangentMode: 103
        weightedMode: 0
        inWeight: 0
        outWeight: 0
      m_PreInfinity: 2
      m_PostInfinity: 2
      m_RotationOrder: 4
    attribute: m_Enabled
    path: 
    classID: 212
    script: {fileID: 0}
  m_EulerEditorCurves: []
  m_HasGenericRootTransform: 0
  m_HasMotionFloatCurves: 0
  m_Events:
  - time: 0.6666667
    functionName: Die
    data: 
    objectReferenceParameter: {fileID: 0}
    floatParameter: 0
    intParameter: 0
    messageOptions: 0
